Regular Expressions
…
```
## [1] "species"           "island"            "bill_length_mm"   
## [4] "bill_depth_mm"     "flipper_length_mm" "body_mass_g"      
## [7] "sex"               "year"
```

```r
penguins %>% select(species,bill_length_mm,flipper_length_mm)
```

```
## # A tibble: 344 x 3
##   species bill_length_mm flipper_length_mm
##   <fct>            <dbl>             <int>
## 1 Adelie            39.1               181
## 2 Adelie            39.5               186
## 3 Adelie            40.3               195
## 4 Adelie            NA                  NA
## 5 Adelie            36.7               193
## # … with 339 more rows
```
…
```
## [1] "species"           "island"            "bill_length_mm"   
## [4] "bill_depth_mm"     "flipper_length_mm" "body_mass_g"      
## [7] "sex"               "year"
```

```r
penguins %>% select(species, matches("length"))
```

```
## # A tibble: 344 x 3
##   species bill_length_mm flipper_length_mm
##   <fct>            <dbl>             <int>
## 1 Adelie            39.1               181
## 2 Adelie            39.5               186
## 3 Adelie            40.3               195
## 4 Adelie            NA                  NA
## 5 Adelie            36.7               193
## # … with 339 more rows
```
---
## Match values and filter rows

.f2[Mammals sleep dataset]

```r
library(ggplot2)
```

```r
msleep %>% select(name,genus)
```

```
## # A tibble: 83 x 2
##   name                       genus     
##   <chr>                      <chr>     
## 1 Cheetah                    Acinonyx  
## 2 Owl monkey                 Aotus     
## 3 Mountain beaver            Aplodontia
## 4 Greater short-tailed shrew Blarina   
## 5 Cow                        Bos       
## # … with 78 more rows
```
…
